3 Tabular Data | Data Carpentry
…
read_csv(file = csv_file)
#> Parsed with column specification:
#> cols(
#>   country = col_character(),
#>   continent = col_character(),
#>   year = col_double(),
#>   lifeExp = col_double(),
#>   pop = col_double(),
#>   gdpPercap = col_double()
#> )
#> # A tibble: 8 x 6
#>   country     continent  year lifeExp      pop gdpPercap
#>   <chr>       <chr>     <dbl>   <dbl>    <dbl>     <dbl>
#> 1 Afghanistan Asia       1952    28.8  8425333      779.
#> 2 Afghanistan Asia       1957    30.3  9240934      821.
#> 3 Afghanistan Asia       1962    32.0 10267083      853.
#> 4 Afghanistan Asia       1967    34.0 11537966      836.
#> 5 Afghanistan Asia       1972    36.1 13079460      740.
#> 6 Afghanistan Asia       1977    38.4 14880372      786.
#> # … with 2 more rows
…
tsv_file <- tempfile(fileext = ".tsv")
writeLines(text = tsv_text, con = tsv_file)

read_tsv(file = tsv_file)
#> Parsed with column specification:
#> cols(
#>   country = col_character(),
#>   continent = col_character(),
#>   year = col_double(),
#>   lifeExp = col_double(),
#>   pop = col_double(),
#>   gdpPercap = col_double()
#> )
#> # A tibble: 8 x 6
#>   country     continent  year lifeExp      pop gdpPercap
#>   <chr>       <chr>     <dbl>   <dbl>    <dbl>     <dbl>
#> 1 Afghanistan Asia       1952    28.8  8425333      779.
#> 2 Afghanistan Asia       1957    30.3  9240934      821.
#> 3 Afghanistan Asia       1962    32.0 10267083      853.
#> 4 Afghanistan Asia       1967    34.0 11537966      836.
#> 5 Afghanistan Asia       1972    36.1 13079460      740.
#> 6 Afghanistan Asia       1977    38.4 14880372      786.
#> # … with 2 more rows
…
psv_file <- tempfile(fileext = ".tsv")
writeLines(text = pipe_separated_values_text, con = psv_file)

read_delim(file = psv_file, delim = "|")
#> Parsed with column specification:
#> cols(
#>   country = col_character(),
#>   continent = col_character(),
#>   year = col_double(),
#>   lifeExp = col_double(),
#>   pop = col_double(),
#>   `gdpPercap     ` = col_double()
#> )
#> # A tibble: 8 x 6
#>   country     continent  year lifeExp      pop `gdpPercap     `
#>   <chr>       <chr>     <dbl>   <dbl>    <dbl>            <dbl>
#> 1 Afghanistan Asia       1952    28.8  8425333             779.
#> 2 Afghanistan Asia       1957    30.3  9240934             821.
#> 3 Afghanistan Asia       1962    32.0 10267083             853.
#> 4 Afghanistan Asia       1967    34.0 11537966             836.
#> 5 Afghanistan Asia       1972    36.1 13079460             740.
#> 6 Afghanistan Asia       1977    38.4 14880372             786.
#> # … with 2 more rows
…
3.2.1 Incorrect Column Types

data_frame_from_csv <- read_csv(file = csv_file)
#> Parsed with column specification:
#> cols(
#>   country = col_character(),
#>   continent = col_character(),
#>   year = col_double(),
#>   lifeExp = col_character(),
#>   pop = col_double(),
#>   gdpPercap = col_double()
#> )
data_frame_from_csv
#> # A tibble: 9 x 6
#>   country     continent  year lifeExp      pop gdpPercap
#>   <chr>       <chr>     <dbl> <chr>      <dbl>     <dbl>
#> 1 Afghanistan Asia       1952 28.801   8425333      779.
#> 2 Afghanistan Asia       1957 30.332   9240934      821.
#> 3 Afghanistan Asia       1962 31.997  10267083      853.
#> 4 Afghanistan Asia       1967 34.02   11537966      836.
#> 5 Afghanistan Asia       1972 36.088  13079460      740.
#> 6 Afghanistan Asia       1977 38.438  14880372      786.
#> # … with 3 more rows
…
3.2.1.1 Solution

read_csv(
  file = csv_file,
  col_types = cols(
    country = col_character(),
    continent = col_character(),
    year = col_integer(),        # read `year` as `integer`
    lifeExp = col_double(),      # read `lifeExp` as `double`
    pop = col_double(),
    gdpPercap = col_double()
  ),
  na = c("", "N/A")              # be explicit about how `csv_file` represents missing values
)
#> # A tibble: 9 x 6
#>   country     continent  year lifeExp      pop gdpPercap
#>   <chr>       <chr>     <int>   <dbl>    <dbl>     <dbl>
#> 1 Afghanistan Asia       1952    28.8  8425333      779.
#> 2 Afghanistan Asia       1957    30.3  9240934      821.
#> 3 Afghanistan Asia       1962    32.0 10267083      853.
#> 4 Afghanistan Asia       1967    34.0 11537966      836.
#> 5 Afghanistan Asia       1972    36.1 13079460      740.
#> 6 Afghanistan Asia       1977    38.4 14880372      786.
#> # … with 3 more rows
